%!PS-Adobe-3.0 EPSF-3.0
%%Creator: cairo 1.10.2 (http://cairographics.org)
%%CreationDate: Wed Jun  5 18:34:07 2013
%%Pages: 1
%%BoundingBox: 0 -1 812 567
%%DocumentData: Clean7Bit
%%LanguageLevel: 2
%%EndComments
%%BeginProlog
/cairo_eps_state save def
/dict_count countdictstack def
/op_count count 1 sub def
userdict begin
/q { gsave } bind def
/Q { grestore } bind def
/cm { 6 array astore concat } bind def
/w { setlinewidth } bind def
/J { setlinecap } bind def
/j { setlinejoin } bind def
/M { setmiterlimit } bind def
/d { setdash } bind def
/m { moveto } bind def
/l { lineto } bind def
/c { curveto } bind def
/h { closepath } bind def
/re { exch dup neg 3 1 roll 5 3 roll moveto 0 rlineto
      0 exch rlineto 0 rlineto closepath } bind def
/S { stroke } bind def
/f { fill } bind def
/f* { eofill } bind def
/n { newpath } bind def
/W { clip } bind def
/W* { eoclip } bind def
/BT { } bind def
/ET { } bind def
/pdfmark where { pop globaldict /?pdfmark /exec load put }
    { globaldict begin /?pdfmark /pop load def /pdfmark
    /cleartomark load def end } ifelse
/BDC { mark 3 1 roll /BDC pdfmark } bind def
/EMC { mark /EMC pdfmark } bind def
/cairo_store_point { /cairo_point_y exch def /cairo_point_x exch def } def
/Tj { show currentpoint cairo_store_point } bind def
/TJ {
  {
    dup
    type /stringtype eq
    { show } { -0.001 mul 0 cairo_font_matrix dtransform rmoveto } ifelse
  } forall
  currentpoint cairo_store_point
} bind def
/cairo_selectfont { cairo_font_matrix aload pop pop pop 0 0 6 array astore
    cairo_font exch selectfont cairo_point_x cairo_point_y moveto } bind def
/Tf { pop /cairo_font exch def /cairo_font_matrix where
      { pop cairo_selectfont } if } bind def
/Td { matrix translate cairo_font_matrix matrix concatmatrix dup
      /cairo_font_matrix exch def dup 4 get exch 5 get cairo_store_point
      /cairo_font where { pop cairo_selectfont } if } bind def
/Tm { 2 copy 8 2 roll 6 array astore /cairo_font_matrix exch def
      cairo_store_point /cairo_font where { pop cairo_selectfont } if } bind def
/g { setgray } bind def
/rg { setrgbcolor } bind def
/d1 { setcachedevice } bind def
%%EndProlog
%%Page: 1 1
%%BeginPageSetup
%%PageBoundingBox: 0 -1 812 567
%%EndPageSetup
q 0 -1 812 568 rectclip q
0 566.414 812 -567 re W n
0.45098 0.682353 0.258824 rg
0.254 486.43 55.277 -21.258 re f
1 g
0.499999 w
1 J
1 j
[] 0.0 d
3 M q 1 0 0 -1 0 566.414185 cm
0.254 79.984 55.277 21.258 re S Q
0.254 465.172 810.707 -464.922 re f
0.45098 0.682353 0.258824 rg
q 1 0 0 -1 0 566.414185 cm
0.254 101.242 810.707 464.922 re S Q
177.418 566.172 131.809 -21.258 re f
1 g
q 1 0 0 -1 0 566.414185 cm
177.418 0.242 131.809 21.258 re S Q
177.418 544.914 496.059 -59.5 re f
0.45098 0.682353 0.258824 rg
q 1 0 0 -1 0 566.414185 cm
177.418 21.5 496.059 59.5 re S Q
37.102 377.879 114.801 -21.262 re f
1 g
q 1 0 0 -1 0 566.414185 cm
37.102 188.535 114.801 21.262 re S Q
37.102 356.621 212.602 -61.641 re f
0.45098 0.682353 0.258824 rg
q 1 0 0 -1 0 566.414185 cm
37.102 209.793 212.602 61.641 re S Q
0.94902 g
185.922 505.012 184.25 -8.508 re f
1 g
q 1 0 0 -1 0 566.414185 cm
185.922 61.402 184.25 8.508 re S Q
0.356863 0.607843 0.835294 rg
185.922 536.418 184.25 -31.41 re f
1 g
q 1 0 0 -1 0 566.414185 cm
185.922 29.996 184.25 31.41 re S Q
0.94902 g
446 502.832 184.25 -8.512 re f
1 g
q 1 0 0 -1 0 566.414185 cm
446 63.582 184.25 8.512 re S Q
0.356863 0.607843 0.835294 rg
446 534.234 184.25 -31.41 re f
1 g
q 1 0 0 -1 0 566.414185 cm
446 32.18 184.25 31.41 re S Q
0.94902 g
414.109 206.996 104.879 -56.508 re f
1 g
q 1 0 0 -1 0 566.414185 cm
414.109 359.418 104.879 56.508 re S Q
0.356863 0.607843 0.835294 rg
414.109 238.406 104.879 -31.41 re f
1 g
q 1 0 0 -1 0 566.414185 cm
414.109 328.008 104.879 31.41 re S Q
0.356863 0.607843 0.835294 rg
q 1 0 0 -1 0 566.414185 cm
416.945 362.25 99.211 12 re S Q
416.945 190.746 m 516.152 190.746 l h
416.945 190.746 m f
0.333333 0.572549 0.788235 rg
0 J
0 j
[ 0.999999 0.499999] 0 d
q 1 0 0 -1 0 566.414185 cm
416.945 375.668 m 516.152 375.668 l S Q
0.356863 0.607843 0.835294 rg
1 J
1 j
[] 0.0 d
q 1 0 0 -1 0 566.414185 cm
416.945 377.082 99.211 36.004 re S Q
0.94902 g
567.18 206.996 121.891 -44.508 re f
1 g
q 1 0 0 -1 0 566.414185 cm
567.18 359.418 121.891 44.508 re S Q
0.356863 0.607843 0.835294 rg
567.18 238.406 121.891 -31.41 re f
1 g
q 1 0 0 -1 0 566.414185 cm
567.18 328.008 121.891 31.41 re S Q
0.356863 0.607843 0.835294 rg
q 1 0 0 -1 0 566.414185 cm
570.016 362.25 116.219 12 re S Q
570.016 190.746 m 686.234 190.746 l h
570.016 190.746 m f
0.333333 0.572549 0.788235 rg
0 J
0 j
[ 0.999999 0.499999] 0 d
q 1 0 0 -1 0 566.414185 cm
570.016 375.668 m 686.234 375.668 l S Q
0.356863 0.607843 0.835294 rg
1 J
1 j
[] 0.0 d
q 1 0 0 -1 0 566.414185 cm
570.016 377.082 116.219 24.004 re S Q
0.94902 g
210.723 107.785 106.301 -32.512 re f
1 g
q 1 0 0 -1 0 566.414185 cm
210.723 458.629 106.301 32.512 re S Q
0.356863 0.607843 0.835294 rg
210.723 139.192 106.301 -31.41 re f
1 g
q 1 0 0 -1 0 566.414185 cm
210.723 427.223 106.301 31.41 re S Q
0.356863 0.607843 0.835294 rg
213.559 91.535 m 314.188 91.535 l h
213.559 91.535 m f
0.333333 0.572549 0.788235 rg
0 J
0 j
[ 0.999999 0.499999] 0 d
q 1 0 0 -1 0 566.414185 cm
213.559 474.879 m 314.188 474.879 l S Q
0.356863 0.607843 0.835294 rg
1 J
1 j
[] 0.0 d
q 1 0 0 -1 0 566.414185 cm
213.559 476.297 100.629 12.004 re S Q
0.94902 g
451.668 65.266 99.211 -56.512 re f
1 g
q 1 0 0 -1 0 566.414185 cm
451.668 501.148 99.211 56.512 re S Q
0.356863 0.607843 0.835294 rg
451.668 96.672 99.211 -31.41 re f
1 g
q 1 0 0 -1 0 566.414185 cm
451.668 469.742 99.211 31.41 re S Q
0.356863 0.607843 0.835294 rg
q 1 0 0 -1 0 566.414185 cm
454.504 503.98 93.543 12 re S Q
454.504 49.016 m 548.043 49.016 l h
454.504 49.016 m f
0.333333 0.572549 0.788235 rg
0 J
0 j
[ 0.999999 0.499999] 0 d
q 1 0 0 -1 0 566.414185 cm
454.504 517.398 m 548.043 517.398 l S Q
0.356863 0.607843 0.835294 rg
1 J
1 j
[] 0.0 d
q 1 0 0 -1 0 566.414185 cm
454.504 518.816 93.543 36.004 re S Q
0.94902 g
15.133 206.996 100.629 -32.508 re f
1 g
q 1 0 0 -1 0 566.414185 cm
15.133 359.418 100.629 32.508 re S Q
0.356863 0.607843 0.835294 rg
15.133 238.406 100.629 -31.41 re f
1 g
q 1 0 0 -1 0 566.414185 cm
15.133 328.008 100.629 31.41 re S Q
0.356863 0.607843 0.835294 rg
q 1 0 0 -1 0 566.414185 cm
17.969 362.25 94.961 12 re S Q
17.969 190.746 m 112.93 190.746 l h
17.969 190.746 m f
0.333333 0.572549 0.788235 rg
0 J
0 j
[ 0.999999 0.499999] 0 d
q 1 0 0 -1 0 566.414185 cm
17.969 375.668 m 112.93 375.668 l S Q
0.356863 0.607843 0.835294 rg
1 J
1 j
[] 0.0 d
q 1 0 0 -1 0 566.414185 cm
17.969 377.082 94.961 12.004 re S Q
q 1 0 0 -1 0 566.414185 cm
213.559 461.461 100.629 12 re S Q
0.94902 g
164.66 412.582 99.211 -32.52 re f
1 g
q 1 0 0 -1 0 566.414185 cm
164.66 153.832 99.211 32.52 re S Q
0.356863 0.607843 0.835294 rg
164.66 443.984 99.211 -31.41 re f
1 g
q 1 0 0 -1 0 566.414185 cm
164.66 122.43 99.211 31.41 re S Q
0.356863 0.607843 0.835294 rg
q 1 0 0 -1 0 566.414185 cm
167.496 156.672 93.543 12 re S Q
167.496 396.32 m 261.035 396.32 l h
167.496 396.32 m f
0.333333 0.572549 0.788235 rg
0 J
0 j
[ 0.999999 0.499999] 0 d
q 1 0 0 -1 0 566.414185 cm
167.496 170.094 m 261.035 170.094 l S Q
0.356863 0.607843 0.835294 rg
1 J
1 j
[] 0.0 d
q 1 0 0 -1 0 566.414185 cm
167.496 171.508 93.543 12.004 re S Q
0.94902 g
285.844 412.582 97.797 -32.52 re f
1 g
q 1 0 0 -1 0 566.414185 cm
285.844 153.832 97.797 32.52 re S Q
0.356863 0.607843 0.835294 rg
285.844 443.984 97.797 -31.41 re f
1 g
q 1 0 0 -1 0 566.414185 cm
285.844 122.43 97.797 31.41 re S Q
0.356863 0.607843 0.835294 rg
q 1 0 0 -1 0 566.414185 cm
288.676 156.672 92.129 12 re S Q
288.676 396.32 m 380.809 396.32 l h
288.676 396.32 m f
0.333333 0.572549 0.788235 rg
0 J
0 j
[ 0.999999 0.499999] 0 d
q 1 0 0 -1 0 566.414185 cm
288.676 170.094 m 380.809 170.094 l S Q
0.356863 0.607843 0.835294 rg
1 J
1 j
[] 0.0 d
q 1 0 0 -1 0 566.414185 cm
288.676 171.508 92.129 12.004 re S Q
0.94902 g
405.605 412.582 93.539 -32.52 re f
1 g
q 1 0 0 -1 0 566.414185 cm
405.605 153.832 93.539 32.52 re S Q
0.356863 0.607843 0.835294 rg
405.605 443.984 93.539 -31.41 re f
1 g
q 1 0 0 -1 0 566.414185 cm
405.605 122.43 93.539 31.41 re S Q
0.356863 0.607843 0.835294 rg
q 1 0 0 -1 0 566.414185 cm
408.441 156.672 87.875 12 re S Q
408.441 396.32 m 496.312 396.32 l h
408.441 396.32 m f
0.333333 0.572549 0.788235 rg
0 J
0 j
[ 0.999999 0.499999] 0 d
q 1 0 0 -1 0 566.414185 cm
408.441 170.094 m 496.313 170.094 l S Q
0.356863 0.607843 0.835294 rg
1 J
1 j
[] 0.0 d
q 1 0 0 -1 0 566.414185 cm
408.441 171.508 87.875 12.004 re S Q
0.94902 g
622.715 412.582 113.391 -32.52 re f
1 g
q 1 0 0 -1 0 566.414185 cm
622.715 153.832 113.391 32.52 re S Q
0.356863 0.607843 0.835294 rg
622.715 443.984 113.391 -31.41 re f
1 g
q 1 0 0 -1 0 566.414185 cm
622.715 122.43 113.391 31.41 re S Q
0.356863 0.607843 0.835294 rg
q 1 0 0 -1 0 566.414185 cm
625.551 156.672 107.715 12 re S Q
625.551 396.32 m 733.27 396.32 l h
625.551 396.32 m f
0.333333 0.572549 0.788235 rg
0 J
0 j
[ 0.999999 0.499999] 0 d
q 1 0 0 -1 0 566.414185 cm
625.551 170.094 m 733.27 170.094 l S Q
0.356863 0.607843 0.835294 rg
1 J
1 j
[] 0.0 d
q 1 0 0 -1 0 566.414185 cm
625.551 171.508 107.715 12.004 re S Q
0.333333 0.572549 0.788235 rg
q 1 0 0 -1 0 566.414185 cm
334.738 122.438 m 334.738 93.516 l 278.051 93.516 l 278.051 78.965 l S Q
0.499999 w
q -0.000000000000000061 -1 -1 0.000000000000000061 0 566.414185 cm
78.965 -281.07 m 69.906 -278.051 l 78.965 -275.031 l 78.965 -281.07 l S Q
0.499999 w
q 1 0 0 -1 0 566.414185 cm
214.266 122.438 m 214.266 93.516 l 334.738 93.516 l S Q
0.94902 g
513.406 412.582 96.207 -32.52 re f
1 g
q 1 0 0 -1 0 566.414185 cm
513.406 153.832 96.207 32.52 re S Q
0.356863 0.607843 0.835294 rg
513.406 443.984 96.207 -31.41 re f
1 g
q 1 0 0 -1 0 566.414185 cm
513.406 122.43 96.207 31.41 re S Q
0.356863 0.607843 0.835294 rg
q 1 0 0 -1 0 566.414185 cm
516.238 156.672 90.543 12 re S Q
516.238 396.32 m 606.781 396.32 l h
516.238 396.32 m f
0.333333 0.572549 0.788235 rg
0 J
0 j
[ 0.999999 0.499999] 0 d
q 1 0 0 -1 0 566.414185 cm
516.238 170.094 m 606.781 170.094 l S Q
0.356863 0.607843 0.835294 rg
1 J
1 j
[] 0.0 d
q 1 0 0 -1 0 566.414185 cm
516.238 171.508 90.543 12.004 re S Q
0.333333 0.572549 0.788235 rg
q 1 0 0 -1 0 566.414185 cm
561.512 122.438 m 561.512 95.566 l 538.121 95.566 l 538.121 81.145 l S Q
0.499999 w
q -0.000000000000000061 -1 -1 0.000000000000000061 0 566.414185 cm
81.145 -541.141 m 72.086 -538.121 l 81.145 -535.102 l 81.145 -541.141 l S Q
0.499999 w
q 1 0 0 -1 0 566.414185 cm
452.379 122.438 m 452.379 95.566 l 553.008 95.566 l S Q
q 1 0 0 -1 0 566.414185 cm
679.41 122.438 m 679.41 95.566 l 561.508 95.566 l S Q
0.94902 g
51.277 311.992 184.246 -8.508 re f
1 g
q 1 0 0 -1 0 566.414185 cm
51.277 254.422 184.246 8.508 re S Q
0.356863 0.607843 0.835294 rg
51.277 343.399 184.246 -31.41 re f
1 g
q 1 0 0 -1 0 566.414185 cm
51.277 223.016 184.246 31.41 re S Q
0.333333 0.572549 0.788235 rg
q 1 0 0 -1 0 566.414185 cm
333.668 328.016 m 333.668 299.664 l 143.398 299.664 l 143.398 271.984 l S Q
0.499999 w
q -0.000000000000000061 -1 -1 0.000000000000000061 0 566.414185 cm
271.984 -146.418 m 262.926 -143.398 l 271.984 -140.379 l 271.984 
-146.418 l S Q
0.94902 g
290.52 207.004 116.789 -44.52 re f
1 g
0.499999 w
q 1 0 0 -1 0 566.414185 cm
290.52 359.41 116.789 44.52 re S Q
0.356863 0.607843 0.835294 rg
290.52 238.406 116.789 -31.41 re f
1 g
q 1 0 0 -1 0 566.414185 cm
290.52 328.008 116.789 31.41 re S Q
0.356863 0.607843 0.835294 rg
q 1 0 0 -1 0 566.414185 cm
293.355 362.25 111.117 12.004 re S Q
293.355 190.742 m 404.473 190.742 l h
293.355 190.742 m f
0.333333 0.572549 0.788235 rg
0 J
0 j
[ 0.999999 0.499999] 0 d
q 1 0 0 -1 0 566.414185 cm
293.355 375.672 m 404.473 375.672 l S Q
0.356863 0.607843 0.835294 rg
1 J
1 j
[] 0.0 d
q 1 0 0 -1 0 566.414185 cm
293.355 377.086 111.117 24.004 re S Q
0.94902 g
696.156 207.004 106.301 -44.52 re f
1 g
q 1 0 0 -1 0 566.414185 cm
696.156 359.41 106.301 44.52 re S Q
0.356863 0.607843 0.835294 rg
696.156 238.406 106.301 -31.41 re f
1 g
q 1 0 0 -1 0 566.414185 cm
696.156 328.008 106.301 31.41 re S Q
0.356863 0.607843 0.835294 rg
q 1 0 0 -1 0 566.414185 cm
698.992 362.25 100.629 12.004 re S Q
698.992 190.742 m 799.621 190.742 l h
698.992 190.742 m f
0.333333 0.572549 0.788235 rg
0 J
0 j
[ 0.999999 0.499999] 0 d
q 1 0 0 -1 0 566.414185 cm
698.992 375.672 m 799.621 375.672 l S Q
0.356863 0.607843 0.835294 rg
1 J
1 j
[] 0.0 d
q 1 0 0 -1 0 566.414185 cm
698.992 377.086 100.629 24.004 re S Q
0.94902 g
563.637 65.274 107.719 -32.523 re f
1 g
q 1 0 0 -1 0 566.414185 cm
563.637 501.141 107.719 32.523 re S Q
0.356863 0.607843 0.835294 rg
563.637 96.672 107.719 -31.41 re f
1 g
q 1 0 0 -1 0 566.414185 cm
563.637 469.742 107.719 31.41 re S Q
0.356863 0.607843 0.835294 rg
q 1 0 0 -1 0 566.414185 cm
566.473 503.98 102.047 12.004 re S Q
566.473 49.012 m 668.52 49.012 l h
566.473 49.012 m f
0.333333 0.572549 0.788235 rg
0 J
0 j
[ 0.999999 0.499999] 0 d
q 1 0 0 -1 0 566.414185 cm
566.473 517.402 m 668.52 517.402 l S Q
0.356863 0.607843 0.835294 rg
1 J
1 j
[] 0.0 d
q 1 0 0 -1 0 566.414185 cm
566.473 518.82 102.047 12.004 re S Q
0.94902 g
124.977 206.996 107.719 -32.508 re f
1 g
q 1 0 0 -1 0 566.414185 cm
124.977 359.418 107.719 32.508 re S Q
0.356863 0.607843 0.835294 rg
124.977 238.406 107.719 -31.41 re f
1 g
q 1 0 0 -1 0 566.414185 cm
124.977 328.008 107.719 31.41 re S Q
0.356863 0.607843 0.835294 rg
q 1 0 0 -1 0 566.414185 cm
127.813 362.25 102.047 12 re S Q
127.812 190.746 m 229.859 190.746 l h
127.812 190.746 m f
0.333333 0.572549 0.788235 rg
0 J
0 j
[ 0.999999 0.499999] 0 d
q 1 0 0 -1 0 566.414185 cm
127.813 375.668 m 229.859 375.668 l S Q
0.356863 0.607843 0.835294 rg
1 J
1 j
[] 0.0 d
q 1 0 0 -1 0 566.414185 cm
127.813 377.082 102.047 12.004 re S Q
0.333333 0.572549 0.788235 rg
q 1 0 0 -1 0 566.414185 cm
501.273 469.746 m 501.273 446.078 l 547.336 446.078 l 547.336 299.668 l 
333.664 299.668 l S Q
q 1 0 0 -1 0 566.414185 cm
617.496 469.746 m 617.496 446.078 l 547.336 446.078 l S Q
q 1 0 0 -1 0 566.414185 cm
547.336 299.668 m 628.129 299.668 l 628.129 328.008 l S Q
q 1 0 0 -1 0 566.414185 cm
628.125 299.668 m 749.305 299.668 l 749.305 328.008 l S Q
q 1 0 0 -1 0 566.414185 cm
464.191 299.668 m 466.555 299.668 l 466.555 328.008 l S Q
q 1 0 0 -1 0 566.414185 cm
278.047 299.668 m 263.879 299.668 l 263.879 427.219 l S Q
q 1 0 0 -1 0 566.414185 cm
178.84 328.016 m 178.84 299.664 l S Q
q 1 0 0 -1 0 566.414185 cm
65.449 328.016 m 65.449 299.664 l 143.398 299.664 l S Q
Q Q
showpage
%%Trailer
count op_count sub {pop} repeat
countdictstack dict_count sub {end} repeat
cairo_eps_state restore
%%EOF
