%!PS-Adobe-3.0 EPSF-3.0
%%Creator: cairo 1.10.2 (http://cairographics.org)
%%CreationDate: Thu May 30 20:44:32 2013
%%Pages: 1
%%BoundingBox: 0 -1 1540 506
%%DocumentData: Clean7Bit
%%LanguageLevel: 2
%%EndComments
%%BeginProlog
/cairo_eps_state save def
/dict_count countdictstack def
/op_count count 1 sub def
userdict begin
/q { gsave } bind def
/Q { grestore } bind def
/cm { 6 array astore concat } bind def
/w { setlinewidth } bind def
/J { setlinecap } bind def
/j { setlinejoin } bind def
/M { setmiterlimit } bind def
/d { setdash } bind def
/m { moveto } bind def
/l { lineto } bind def
/c { curveto } bind def
/h { closepath } bind def
/re { exch dup neg 3 1 roll 5 3 roll moveto 0 rlineto
      0 exch rlineto 0 rlineto closepath } bind def
/S { stroke } bind def
/f { fill } bind def
/f* { eofill } bind def
/n { newpath } bind def
/W { clip } bind def
/W* { eoclip } bind def
/BT { } bind def
/ET { } bind def
/pdfmark where { pop globaldict /?pdfmark /exec load put }
    { globaldict begin /?pdfmark /pop load def /pdfmark
    /cleartomark load def end } ifelse
/BDC { mark 3 1 roll /BDC pdfmark } bind def
/EMC { mark /EMC pdfmark } bind def
/cairo_store_point { /cairo_point_y exch def /cairo_point_x exch def } def
/Tj { show currentpoint cairo_store_point } bind def
/TJ {
  {
    dup
    type /stringtype eq
    { show } { -0.001 mul 0 cairo_font_matrix dtransform rmoveto } ifelse
  } forall
  currentpoint cairo_store_point
} bind def
/cairo_selectfont { cairo_font_matrix aload pop pop pop 0 0 6 array astore
    cairo_font exch selectfont cairo_point_x cairo_point_y moveto } bind def
/Tf { pop /cairo_font exch def /cairo_font_matrix where
      { pop cairo_selectfont } if } bind def
/Td { matrix translate cairo_font_matrix matrix concatmatrix dup
      /cairo_font_matrix exch def dup 4 get exch 5 get cairo_store_point
      /cairo_font where { pop cairo_selectfont } if } bind def
/Tm { 2 copy 8 2 roll 6 array astore /cairo_font_matrix exch def
      cairo_store_point /cairo_font where { pop cairo_selectfont } if } bind def
/g { setgray } bind def
/rg { setrgbcolor } bind def
/d1 { setcachedevice } bind def
%%EndProlog
%%Page: 1 1
%%BeginPageSetup
%%PageBoundingBox: 0 -1 1540 506
%%EndPageSetup
q 0 -1 1540 507 rectclip q
0 505.083 1543 -506 re W n
0.94902 g
684.816 473.427 165.832 -92.531 re f
1 g
0.499999 w
1 J
1 j
[] 0.0 d
3 M q 1 0 0 -1 0 505.08313 cm
684.816 31.656 165.832 92.531 re S Q
0.356863 0.607843 0.835294 rg
684.816 504.837 165.832 -31.41 re f
1 g
q 1 0 0 -1 0 505.08313 cm
684.816 0.246 165.832 31.41 re S Q
0.356863 0.607843 0.835294 rg
q 1 0 0 -1 0 505.08313 cm
687.652 34.488 160.156 12.004 re S Q
687.652 397.157 m 847.812 397.157 l h
687.652 397.157 m f
0.333333 0.572549 0.788235 rg
0 J
0 j
[ 0.999999 0.499999] 0 d
q 1 0 0 -1 0 505.08313 cm
687.652 107.926 m 847.813 107.926 l S Q
0.94902 g
198.676 44.314 133.25 -32.508 re f
1 g
1 J
1 j
[] 0.0 d
q 1 0 0 -1 0 505.08313 cm
198.676 460.77 133.25 32.508 re S Q
0.356863 0.607843 0.835294 rg
198.676 75.724 133.25 -31.41 re f
1 g
q 1 0 0 -1 0 505.08313 cm
198.676 429.359 133.25 31.41 re S Q
0.356863 0.607843 0.835294 rg
q 1 0 0 -1 0 505.08313 cm
201.512 478.434 127.582 12.004 re S Q
0.94902 g
1355.918 252.665 183.008 -68.531 re f
1 g
q 1 0 0 -1 0 505.08313 cm
1355.918 252.418 183.008 68.531 re S Q
0.356863 0.607843 0.835294 rg
1355.918 284.068 183.008 -31.41 re f
1 g
q 1 0 0 -1 0 505.08313 cm
1355.918 221.016 183.008 31.41 re S Q
0.356863 0.607843 0.835294 rg
q 1 0 0 -1 0 505.08313 cm
1358.758 255.258 177.336 12 re S Q
1358.758 236.403 m 1536.098 236.403 l h
1358.758 236.403 m f
0.333333 0.572549 0.788235 rg
0 J
0 j
[ 0.999999 0.499999] 0 d
q 1 0 0 -1 0 505.08313 cm
1358.758 268.68 m 1536.098 268.68 l S Q
0.356863 0.607843 0.835294 rg
1 J
1 j
[] 0.0 d
q 1 0 0 -1 0 505.08313 cm
1358.758 306.105 177.336 12.004 re S Q
0.94902 g
315.441 148.142 135.5 -32.52 re f
1 g
q 1 0 0 -1 0 505.08313 cm
315.441 356.941 135.5 32.52 re S Q
0.356863 0.607843 0.835294 rg
315.441 179.544 135.5 -31.41 re f
1 g
q 1 0 0 -1 0 505.08313 cm
315.441 325.539 135.5 31.41 re S Q
0.356863 0.607843 0.835294 rg
q 1 0 0 -1 0 505.08313 cm
318.277 359.777 129.828 12.004 re S Q
0.333333 0.572549 0.788235 rg
q 1 0 0 -1 0 505.08313 cm
684.816 62.219 m 191.578 62.219 l 191.578 180.801 l S Q
0.94902 g
368.754 44.536 133.25 -32.508 re f
1 g
q 1 0 0 -1 0 505.08313 cm
368.754 460.547 133.25 32.508 re S Q
0.356863 0.607843 0.835294 rg
368.754 75.946 133.25 -31.41 re f
1 g
q 1 0 0 -1 0 505.08313 cm
368.754 429.137 133.25 31.41 re S Q
0.356863 0.607843 0.835294 rg
q 1 0 0 -1 0 505.08313 cm
371.59 478.215 127.582 12 re S Q
0.333333 0.572549 0.788235 rg
q 1 0 0 -1 0 505.08313 cm
265.305 429.367 m 265.305 411.367 l 383.191 411.367 l 383.191 398.516 l S Q
0.499999 w
q -0.000000000000000061 -1 -1 0.000000000000000061 0 505.08313 cm
398.516 -386.211 m 389.457 -383.191 l 398.516 -380.172 l 398.516 
-386.211 l S Q
0.499999 w
q 1 0 0 -1 0 505.08313 cm
435.379 429.145 m 435.379 391.824 l 392.25 391.824 l S Q
0.499999 w
q 1 -0.000000000000000122 -0.000000000000000122 -1 0 505.08313 cm
392.25 388.805 m 383.191 391.824 l 392.25 394.844 l 392.25 388.805 l S Q
0.94902 g
927.887 256.564 175.75 -116.539 re f
1 g
0.499999 w
q 1 0 0 -1 0 505.08313 cm
927.887 248.52 175.75 116.539 re S Q
0.356863 0.607843 0.835294 rg
927.887 287.974 175.75 -31.41 re f
1 g
q 1 0 0 -1 0 505.08313 cm
927.887 217.109 175.75 31.41 re S Q
0.356863 0.607843 0.835294 rg
q 1 0 0 -1 0 505.08313 cm
930.719 251.352 170.078 12.004 re S Q
930.719 240.31 m 1100.797 240.31 l h
930.719 240.31 m f
0.333333 0.572549 0.788235 rg
0 J
0 j
[ 0.999999 0.499999] 0 d
q 1 0 0 -1 0 505.08313 cm
930.719 264.773 m 1100.797 264.773 l S Q
1 J
1 j
[] 0.0 d
q 1 0 0 -1 0 505.08313 cm
1015.758 217.117 m 1015.758 62.219 l 850.637 62.219 l S Q
q 1 0 0 -1 0 505.08313 cm
850.645 62.219 m 1447.422 62.219 l 1447.422 221.02 l S Q
0.94902 g
331.906 240.825 102.047 -17.68 re f
1 g
q 1 0 0 -1 0 505.08313 cm
331.906 264.258 102.047 17.68 re S Q
0.356863 0.607843 0.835294 rg
331.906 283.728 102.047 -42.91 re f
1 g
q 1 0 0 -1 0 505.08313 cm
331.906 221.355 102.047 42.91 re S Q
0.356863 0.607843 0.835294 rg
q 1 0 0 -1 0 505.08313 cm
334.738 267.094 96.379 12.004 re S Q
0.333333 0.572549 0.788235 rg
q 1 0 0 -1 0 505.08313 cm
684.816 62.219 m 382.93 62.219 l 382.93 221.348 l S Q
0.94902 g
113.613 281.372 155.93 -68.52 re f
1 g
q 1 0 0 -1 0 505.08313 cm
113.613 223.711 155.93 68.52 re S Q
0.356863 0.607843 0.835294 rg
113.613 324.278 155.93 -42.91 re f
1 g
q 1 0 0 -1 0 505.08313 cm
113.613 180.805 155.93 42.91 re S Q
0.356863 0.607843 0.835294 rg
q 1 0 0 -1 0 505.08313 cm
116.449 241.379 150.258 12.004 re S Q
0.94902 g
141.973 137.786 99.211 -32.52 re f
1 g
q 1 0 0 -1 0 505.08313 cm
141.973 367.297 99.211 32.52 re S Q
0.356863 0.607843 0.835294 rg
141.973 169.189 99.211 -31.41 re f
1 g
q 1 0 0 -1 0 505.08313 cm
141.973 335.895 99.211 31.41 re S Q
0.356863 0.607843 0.835294 rg
q 1 0 0 -1 0 505.08313 cm
144.809 370.137 93.543 12 re S Q
144.809 121.525 m 238.348 121.525 l h
144.809 121.525 m f
0.333333 0.572549 0.788235 rg
0 J
0 j
[ 0.999999 0.499999] 0 d
q 1 0 0 -1 0 505.08313 cm
144.809 383.559 m 238.348 383.559 l S Q
0.356863 0.607843 0.835294 rg
1 J
1 j
[] 0.0 d
q 1 0 0 -1 0 505.08313 cm
144.809 384.973 93.543 12.004 re S Q
0.94902 g
0.254 137.962 104.887 -32.52 re f
1 g
q 1 0 0 -1 0 505.08313 cm
0.254 367.121 104.887 32.52 re S Q
0.356863 0.607843 0.835294 rg
0.254 169.364 104.887 -31.41 re f
1 g
q 1 0 0 -1 0 505.08313 cm
0.254 335.719 104.887 31.41 re S Q
0.356863 0.607843 0.835294 rg
q 1 0 0 -1 0 505.08313 cm
3.086 369.961 99.227 12.004 re S Q
3.086 121.7 m 102.305 121.7 l h
3.086 121.7 m f
0.333333 0.572549 0.788235 rg
0 J
0 j
[ 0.999999 0.499999] 0 d
q 1 0 0 -1 0 505.08313 cm
3.086 383.383 m 102.305 383.383 l S Q
0.356863 0.607843 0.835294 rg
1 J
1 j
[] 0.0 d
q 1 0 0 -1 0 505.08313 cm
3.086 384.797 99.227 12.004 re S Q
q 1 0 0 -1 0 505.08313 cm
687.652 109.344 160.156 12.004 re S Q
q 1 0 0 -1 0 505.08313 cm
1358.758 282.098 177.336 12.004 re S Q
q 1 0 0 -1 0 505.08313 cm
930.719 278.195 170.078 12.004 re S Q
0.94902 g
498.441 253.732 191.34 -140.547 re f
1 g
q 1 0 0 -1 0 505.08313 cm
498.441 251.352 191.34 140.547 re S Q
0.356863 0.607843 0.835294 rg
498.441 285.138 191.34 -31.41 re f
1 g
q 1 0 0 -1 0 505.08313 cm
498.441 219.945 191.34 31.41 re S Q
0.356863 0.607843 0.835294 rg
q 1 0 0 -1 0 505.08313 cm
501.273 254.188 185.672 12.004 re S Q
501.273 237.474 m 686.945 237.474 l h
501.273 237.474 m f
0.333333 0.572549 0.788235 rg
0 J
0 j
[ 0.999999 0.499999] 0 d
q 1 0 0 -1 0 505.08313 cm
501.273 267.609 m 686.945 267.609 l S Q
0.356863 0.607843 0.835294 rg
1 J
1 j
[] 0.0 d
q 1 0 0 -1 0 505.08313 cm
501.273 305.035 185.672 12.004 re S Q
q 1 0 0 -1 0 505.08313 cm
930.719 290.195 170.078 12.004 re S Q
q 1 0 0 -1 0 505.08313 cm
501.273 293.031 185.672 12.004 re S Q
q 1 0 0 -1 0 505.08313 cm
501.273 317.039 185.672 12.004 re S Q
q 1 0 0 -1 0 505.08313 cm
501.273 281.027 185.672 12.004 re S Q
q 1 0 0 -1 0 505.08313 cm
501.273 329.043 185.672 12.004 re S Q
q 1 0 0 -1 0 505.08313 cm
501.273 341.047 185.672 12.004 re S Q
q 1 0 0 -1 0 505.08313 cm
501.273 365.055 185.672 12.004 re S Q
q 1 0 0 -1 0 505.08313 cm
501.273 353.051 185.672 12.004 re S Q
q 1 0 0 -1 0 505.08313 cm
116.449 277.391 150.258 12 re S Q
q 1 0 0 -1 0 505.08313 cm
116.449 265.387 150.258 12.004 re S Q
0.333333 0.572549 0.788235 rg
q 1 0 0 -1 0 505.08313 cm
684.816 62.219 m 594.109 62.219 l 594.109 219.949 l S Q
0.356863 0.607843 0.835294 rg
q 1 0 0 -1 0 505.08313 cm
687.652 46.492 160.156 12 re S Q
q 1 0 0 -1 0 505.08313 cm
687.652 58.496 160.156 12 re S Q
q 1 0 0 -1 0 505.08313 cm
687.652 94.504 160.156 12.004 re S Q
q 1 0 0 -1 0 505.08313 cm
687.652 70.496 160.156 12.004 re S Q
q 1 0 0 -1 0 505.08313 cm
687.652 82.5 160.156 12.004 re S Q
q 1 0 0 -1 0 505.08313 cm
930.719 302.199 170.078 12.004 re S Q
q 1 0 0 -1 0 505.08313 cm
930.719 314.203 170.078 12.004 re S Q
q 1 0 0 -1 0 505.08313 cm
1358.758 294.102 177.336 12.004 re S Q
0.94902 g
764.188 256.911 128.98 -56.52 re f
1 g
q 1 0 0 -1 0 505.08313 cm
764.188 248.172 128.98 56.52 re S Q
0.356863 0.607843 0.835294 rg
764.188 288.321 128.98 -31.41 re f
1 g
q 1 0 0 -1 0 505.08313 cm
764.188 216.762 128.98 31.41 re S Q
0.356863 0.607843 0.835294 rg
q 1 0 0 -1 0 505.08313 cm
767.023 251.004 123.305 12.004 re S Q
767.023 216.65 m 890.332 216.65 l h
767.023 216.65 m f
0.333333 0.572549 0.788235 rg
0 J
0 j
[ 0.999999 0.499999] 0 d
q 1 0 0 -1 0 505.08313 cm
767.023 288.434 m 890.332 288.434 l S Q
0.356863 0.607843 0.835294 rg
1 J
1 j
[] 0.0 d
q 1 0 0 -1 0 505.08313 cm
767.023 289.852 123.305 12 re S Q
0.333333 0.572549 0.788235 rg
q 1 0 0 -1 0 505.08313 cm
689.777 305.926 m 725.777 305.926 l 725.777 260.727 l 764.188 260.727 l S Q
0.499999 w
q -1 0 0 1 0 505.08313 cm
-755.129 -257.707 m -764.188 -260.727 l -755.129 -263.746 l S Q
0.356863 0.607843 0.835294 rg
0.499999 w
q 1 0 0 -1 0 505.08313 cm
767.023 263.008 123.305 12.004 re S Q
q 1 0 0 -1 0 505.08313 cm
767.023 275.012 123.305 12.004 re S Q
q 1 0 0 -1 0 505.08313 cm
930.719 326.207 170.078 12.004 re S Q
q 1 0 0 -1 0 505.08313 cm
930.719 338.211 170.078 12.004 re S Q
q 1 0 0 -1 0 505.08313 cm
930.719 350.215 170.078 12.004 re S Q
q 1 0 0 -1 0 505.08313 cm
116.449 253.383 150.258 12.004 re S Q
q 1 0 0 -1 0 505.08313 cm
501.273 377.059 185.672 12 re S Q
q 1 0 0 -1 0 505.08313 cm
501.273 269.023 185.672 12.004 re S Q
116.449 265.118 m 266.707 265.118 l h
116.449 265.118 m f
0.333333 0.572549 0.788235 rg
0 J
0 j
[ 0.999999 0.499999] 0 d
q 1 0 0 -1 0 505.08313 cm
116.449 239.965 m 266.707 239.965 l S Q
0.356863 0.607843 0.835294 rg
1 J
1 j
[] 0.0 d
q 1 0 0 -1 0 505.08313 cm
116.449 226.543 150.258 12 re S Q
q 1 0 0 -1 0 505.08313 cm
930.719 266.191 170.078 12.004 re S Q
q 1 0 0 -1 0 505.08313 cm
1358.758 270.094 177.336 12.004 re S Q
318.277 131.884 m 448.105 131.884 l h
318.277 131.884 m f
0.333333 0.572549 0.788235 rg
0 J
0 j
[ 0.999999 0.499999] 0 d
q 1 0 0 -1 0 505.08313 cm
318.277 373.199 m 448.105 373.199 l S Q
0.356863 0.607843 0.835294 rg
1 J
1 j
[] 0.0 d
q 1 0 0 -1 0 505.08313 cm
318.277 374.617 129.828 12.004 re S Q
201.512 28.064 m 329.09 28.064 l h
201.512 28.064 m f
0.333333 0.572549 0.788235 rg
0 J
0 j
[ 0.999999 0.499999] 0 d
q 1 0 0 -1 0 505.08313 cm
201.512 477.02 m 329.09 477.02 l S Q
0.356863 0.607843 0.835294 rg
1 J
1 j
[] 0.0 d
q 1 0 0 -1 0 505.08313 cm
201.512 463.602 127.582 12 re S Q
371.59 28.286 m 499.168 28.286 l h
371.59 28.286 m f
0.333333 0.572549 0.788235 rg
0 J
0 j
[ 0.999999 0.499999] 0 d
q 1 0 0 -1 0 505.08313 cm
371.59 476.797 m 499.168 476.797 l S Q
0.356863 0.607843 0.835294 rg
1 J
1 j
[] 0.0 d
q 1 0 0 -1 0 505.08313 cm
371.59 463.379 127.582 12 re S Q
0.94902 g
1143.316 236.189 184.25 -68.531 re f
1 g
q 1 0 0 -1 0 505.08313 cm
1143.316 268.895 184.25 68.531 re S Q
0.356863 0.607843 0.835294 rg
1143.316 267.591 184.25 -31.41 re f
1 g
q 1 0 0 -1 0 505.08313 cm
1143.316 237.492 184.25 31.41 re S Q
0.356863 0.607843 0.835294 rg
q 1 0 0 -1 0 505.08313 cm
1146.156 271.734 178.586 12.004 re S Q
1146.156 183.915 m 1324.738 183.915 l h
1146.156 183.915 m f
0.333333 0.572549 0.788235 rg
0 J
0 j
[ 0.999999 0.499999] 0 d
q 1 0 0 -1 0 505.08313 cm
1146.156 321.168 m 1324.738 321.168 l S Q
0.356863 0.607843 0.835294 rg
1 J
1 j
[] 0.0 d
q 1 0 0 -1 0 505.08313 cm
1146.156 322.582 178.586 12.004 re S Q
q 1 0 0 -1 0 505.08313 cm
1146.156 295.738 178.586 12.004 re S Q
q 1 0 0 -1 0 505.08313 cm
1146.156 307.742 178.586 12.004 re S Q
q 1 0 0 -1 0 505.08313 cm
1146.156 283.738 178.586 12.004 re S Q
0.333333 0.572549 0.788235 rg
q 1 0 0 -1 0 505.08313 cm
1103.637 291.082 m 1121.637 291.082 l 1121.637 287.461 l 1143.328 
287.461 l S Q
0.499999 w
q -1 0 0 1 0 505.08313 cm
-1134.27 -284.441 m -1143.328 -287.461 l -1134.27 -290.48 l S Q
0.94902 g
752.141 96.622 102.051 -56.52 re f
1 g
0.499999 w
q 1 0 0 -1 0 505.08313 cm
752.141 408.461 102.051 56.52 re S Q
0.356863 0.607843 0.835294 rg
752.141 128.028 102.051 -31.41 re f
1 g
q 1 0 0 -1 0 505.08313 cm
752.141 377.055 102.051 31.41 re S Q
0.356863 0.607843 0.835294 rg
q 1 0 0 -1 0 505.08313 cm
754.977 411.297 96.375 12.004 re S Q
754.977 56.357 m 851.355 56.357 l h
754.977 56.357 m f
0.333333 0.572549 0.788235 rg
0 J
0 j
[ 0.999999 0.499999] 0 d
q 1 0 0 -1 0 505.08313 cm
754.977 448.727 m 851.355 448.727 l S Q
0.356863 0.607843 0.835294 rg
1 J
1 j
[] 0.0 d
q 1 0 0 -1 0 505.08313 cm
754.977 450.141 96.375 12 re S Q
q 1 0 0 -1 0 505.08313 cm
754.977 435.301 96.375 12.004 re S Q
q 1 0 0 -1 0 505.08313 cm
754.977 423.297 96.375 12.004 re S Q
0.333333 0.572549 0.788235 rg
q 1 0 0 -1 0 505.08313 cm
691.574 305.926 m 691.574 421.016 l 752.141 421.016 l S Q
0.499999 w
q -1 0 0 1 0 505.08313 cm
-743.082 -417.996 m -752.141 -421.016 l -743.082 -424.035 l S Q
0.94902 g
930.719 68.775 184.25 -68.52 re f
1 g
0.499999 w
q 1 0 0 -1 0 505.08313 cm
930.719 436.309 184.25 68.52 re S Q
0.356863 0.607843 0.835294 rg
930.719 111.681 184.25 -42.91 re f
1 g
q 1 0 0 -1 0 505.08313 cm
930.719 393.402 184.25 42.91 re S Q
0.356863 0.607843 0.835294 rg
q 1 0 0 -1 0 505.08313 cm
933.559 439.141 178.582 12.004 re S Q
933.559 16.509 m 1112.137 16.509 l h
933.559 16.509 m f
0.333333 0.572549 0.788235 rg
0 J
0 j
[ 0.999999 0.499999] 0 d
q 1 0 0 -1 0 505.08313 cm
933.559 488.574 m 1112.137 488.574 l S Q
0.356863 0.607843 0.835294 rg
1 J
1 j
[] 0.0 d
q 1 0 0 -1 0 505.08313 cm
933.559 489.992 178.582 12 re S Q
q 1 0 0 -1 0 505.08313 cm
933.559 475.152 178.582 12.004 re S Q
q 1 0 0 -1 0 505.08313 cm
933.559 451.145 178.582 12.004 re S Q
q 1 0 0 -1 0 505.08313 cm
933.559 463.148 178.582 12.004 re S Q
0.333333 0.572549 0.788235 rg
[ 3.499995 2.499996] 0 d
q 1 0 0 -1 0 505.08313 cm
383.188 325.543 m 383.188 289.547 l 382.926 289.547 l 382.926 281.934 l S Q
0.499999 w
[] 0.0 d
q -0.000000000000000061 -1 -1 0.000000000000000061 0 505.08313 cm
290.996 -385.945 m 281.934 -382.926 l 290.996 -379.906 l 290.996 
-385.945 l S Q
0.499999 w
[ 3.499995 2.499996] 0 d
q 1 0 0 -1 0 505.08313 cm
191.582 335.902 m 191.582 301.289 l S Q
0.499999 w
[] 0.0 d
q -0.000000000000000061 -1 -1 0.000000000000000061 0 505.08313 cm
301.289 -194.602 m 292.23 -191.582 l 301.289 -188.563 l 301.289 
-194.602 l S Q
0.499999 w
[ 3.499995 2.499996] 0 d
q 1 0 0 -1 0 505.08313 cm
52.699 335.727 m 52.699 313.586 l 173.578 313.586 l 173.578 292.887 l 
182.52 292.887 l S Q
0.499999 w
[] 0.0 d
q -1 0 0 1 0 505.08313 cm
-182.52 -295.906 m -191.578 -292.887 l -182.52 -289.867 l -182.52 
-295.906 l S Q
Q Q
showpage
%%Trailer
count op_count sub {pop} repeat
countdictstack dict_count sub {end} repeat
cairo_eps_state restore
%%EOF
